cordic_advanced.vcd
$date
	Sat Nov 22 18:53:31 2025
$end
$version
	Icarus Verilog
$end
$timescale
	1ps
$end
$scope module tb_cordic_advanced $end
$var wire 1 ! sincos_valid $end
$var wire 19 " sin_out [18:0] $end
$var wire 19 # cos_out [18:0] $end
$var wire 1 $ angle_ready $end
$var parameter 32 % ANGLE_WIDTH $end
$var parameter 32 & CLK_PERIOD $end
$var parameter 32 ' DATA_WIDTH $end
$var parameter 32 ( PIPELINE_STAGES $end
$var reg 19 ) actual_cos_fixed [18:0] $end
$var reg 19 * actual_sin_fixed [18:0] $end
$var reg 32 + angle_in [31:0] $end
$var reg 1 , angle_valid $end
$var reg 1 - clk $end
$var reg 1 . enable $end
$var reg 19 / expected_cos_fixed [18:0] $end
$var reg 19 0 expected_sin_fixed [18:0] $end
$var reg 1 1 rst_n $end
$var reg 1 2 sincos_ready $end
$var real 1 3 actual_cos $end
$var real 1 4 actual_sin $end
$var real 1 5 angle_deg $end
$var real 1 6 angle_rad $end
$var real 1 7 error_cos $end
$var real 1 8 error_sin $end
$var real 1 9 expected_cos $end
$var real 1 : expected_sin $end
$var integer 32 ; i [31:0] $end
$var integer 32 < latency_counter [31:0] $end
$var real 1 = max_error_cos $end
$var real 1 > max_error_sin $end
$var real 1 ? rms_error_cos $end
$var real 1 @ rms_error_sin $end
$var integer 32 A test_failed [31:0] $end
$var integer 32 B test_passed [31:0] $end
$scope module dut_sincos $end
$var wire 32 C angle [31:0] $end
$var wire 1 , angle_valid $end
$var wire 1 - clk $end
$var wire 1 . enable $end
$var wire 1 2 result_ready $end
$var wire 1 1 rst_n $end
$var wire 32 D throughput [31:0] $end
$var wire 19 E sin_out [18:0] $end
$var wire 1 ! result_valid $end
$var wire 1 F overflow $end
$var wire 16 G iter_count [15:0] $end
$var wire 19 H cos_out [18:0] $end
$var wire 1 $ angle_ready $end
$var parameter 32 I ANGLE_WIDTH $end
$var parameter 32 J DATA_WIDTH $end
$var parameter 18 K K_INV $end
$var parameter 32 L PIPELINE_STAGES $end
$scope module cordic_core $end
$var wire 1 - clk $end
$var wire 1 2 data_ready_in $end
$var wire 1 $ data_ready_out $end
$var wire 1 , data_valid_in $end
$var wire 1 ! data_valid_out $end
$var wire 1 . enable $end
$var wire 16 M iterations_count [15:0] $end
$var wire 1 F overflow $end
$var wire 1 1 rst_n $end
$var wire 32 N throughput_counter [31:0] $end
$var wire 18 O x_in [17:0] $end
$var wire 19 P x_out [18:0] $end
$var wire 18 Q y_in [17:0] $end
$var wire 19 R y_out [18:0] $end
$var wire 32 S z_in [31:0] $end
$var wire 32 T z_out [31:0] $end
$var wire 2 U quadrant [1:0] $end
$var parameter 32 V ANGLE_WIDTH $end
$var real 1 W CORDIC_GAIN $end
$var parameter 32 X DATA_WIDTH $end
$var parameter 32 Y ITERATIONS $end
$var parameter 18 Z K_INVERSE $end
$var parameter 32 [ PIPELINE_STAGES $end
$var reg 16 \ iteration_counter [15:0] $end
$var reg 1 ] overflow_flag $end
$var reg 32 ^ throughput_cnt [31:0] $end
$scope function atan_lut $end
$var integer 32 _ idx [31:0] $end
$upscope $end
$scope begin cordic_pipeline[0] $end
$var wire 19 ` x_shifted [18:0] $end
$var wire 19 a y_shifted [18:0] $end
$var wire 1 b decision_sign $end
$var parameter 2 c i $end
$upscope $end
$scope begin cordic_pipeline[1] $end
$var wire 19 d y_shifted [18:0] $end
$var wire 19 e x_shifted [18:0] $end
$var wire 1 f decision_sign $end
$var parameter 2 g i $end
$upscope $end
$scope begin cordic_pipeline[2] $end
$var wire 19 h y_shifted [18:0] $end
$var wire 19 i x_shifted [18:0] $end
$var wire 1 j decision_sign $end
$var parameter 3 k i $end
$upscope $end
$scope begin cordic_pipeline[3] $end
$var wire 19 l y_shifted [18:0] $end
$var wire 19 m x_shifted [18:0] $end
$var wire 1 n decision_sign $end
$var parameter 3 o i $end
$upscope $end
$scope begin cordic_pipeline[4] $end
$var wire 19 p y_shifted [18:0] $end
$var wire 19 q x_shifted [18:0] $end
$var wire 1 r decision_sign $end
$var parameter 4 s i $end
$upscope $end
$scope begin cordic_pipeline[5] $end
$var wire 19 t y_shifted [18:0] $end
$var wire 19 u x_shifted [18:0] $end
$var wire 1 v decision_sign $end
$var parameter 4 w i $end
$upscope $end
$scope begin cordic_pipeline[6] $end
$var wire 19 x y_shifted [18:0] $end
$var wire 19 y x_shifted [18:0] $end
$var wire 1 z decision_sign $end
$var parameter 4 { i $end
$upscope $end
$scope begin cordic_pipeline[7] $end
$var wire 19 | y_shifted [18:0] $end
$var wire 19 } x_shifted [18:0] $end
$var wire 1 ~ decision_sign $end
$var parameter 4 !" i $end
$upscope $end
$scope begin cordic_pipeline[8] $end
$var wire 19 "" y_shifted [18:0] $end
$var wire 19 #" x_shifted [18:0] $end
$var wire 1 $" decision_sign $end
$var parameter 5 %" i $end
$upscope $end
$scope begin cordic_pipeline[9] $end
$var wire 19 &" y_shifted [18:0] $end
$var wire 19 '" x_shifted [18:0] $end
$var wire 1 (" decision_sign $end
$var parameter 5 )" i $end
$upscope $end
$scope begin cordic_pipeline[10] $end
$var wire 19 *" y_shifted [18:0] $end
$var wire 19 +" x_shifted [18:0] $end
$var wire 1 ," decision_sign $end
$var parameter 5 -" i $end
$upscope $end
$scope begin cordic_pipeline[11] $end
$var wire 19 ." y_shifted [18:0] $end
$var wire 19 /" x_shifted [18:0] $end
$var wire 1 0" decision_sign $end
$var parameter 5 1" i $end
$upscope $end
$scope begin cordic_pipeline[12] $end
$var wire 19 2" y_shifted [18:0] $end
$var wire 19 3" x_shifted [18:0] $end
$var wire 1 4" decision_sign $end
$var parameter 5 5" i $end
$upscope $end
$scope begin cordic_pipeline[13] $end
$var wire 19 6" y_shifted [18:0] $end
$var wire 19 7" x_shifted [18:0] $end
$var wire 1 8" decision_sign $end
$var parameter 5 9" i $end
$upscope $end
$scope begin cordic_pipeline[14] $end
$var wire 19 :" y_shifted [18:0] $end
$var wire 19 ;" x_shifted [18:0] $end
$var wire 1 <" decision_sign $end
$var parameter 5 =" i $end
$upscope $end
$scope begin cordic_pipeline[15] $end
$var wire 19 >" y_shifted [18:0] $end
$var wire 19 ?" x_shifted [18:0] $end
$var wire 1 @" decision_sign $end
$var parameter 5 A" i $end
$upscope $end
$scope begin cordic_pipeline[16] $end
$var wire 19 B" y_shifted [18:0] $end
$var wire 19 C" x_shifted [18:0] $end
$var wire 1 D" decision_sign $end
$var parameter 6 E" i $end
$upscope $end
$scope begin cordic_pipeline[17] $end
$var wire 19 F" y_shifted [18:0] $end
$var wire 19 G" x_shifted [18:0] $end
$var wire 1 H" decision_sign $end
$var parameter 6 I" i $end
$upscope $end
$upscope $end
$upscope $end
$scope task print_header $end
$upscope $end
$scope task print_summary $end
$upscope $end
$scope task test_angle $end
$var reg 640 J" description [640:1] $end
$var real 1 K" test_angle_deg $end
$var real 1 L" test_angle_rad $end
$upscope $end
$scope task test_edge_cases $end
$upscope $end
$scope task test_performance $end
$var integer 32 M" end_time [31:0] $end
$var integer 32 N" start_time [31:0] $end
$var real 1 O" throughput_mhz $end
$var integer 32 P" total_cycles [31:0] $end
$upscope $end
$scope task test_sincos_comprehensive $end
$var integer 32 Q" angle_int [31:0] $end
$var integer 32 R" num_tests [31:0] $end
$var real 1 S" sum_sq_error_cos $end
$var real 1 T" sum_sq_error_sin $end
$upscope $end
$scope task test_sincos_negative $end
$var integer 32 U" angle_int [31:0] $end
$var integer 32 V" num_tests [31:0] $end
$var real 1 W" sum_sq_error_cos $end
$var real 1 X" sum_sq_error_sin $end
$upscope $end
$upscope $end
$enddefinitions $end
$comment Show the parameter values. $end
$dumpall
b10001 I"
b10000 E"
b1111 A"
b1110 ="
b1101 9"
b1100 5"
b1011 1"
b1010 -"
b1001 )"
b1000 %"
b111 !"
b110 {
b101 w
b100 s
b11 o
b10 k
b1 g
b0 c
b10010 [
b10011011011101001 Z
b10010 Y
b10010 X
r1.646760258121 W
b100000 V
b10010 L
b10011011011101001 K
b10010 J
b100000 I
b10010 (
b10010 '
b1010 &
b100000 %
$end
#0
$dumpvars
r0 X"
r0 W"
bx V"
bx U"
r0 T"
r0 S"
bx R"
bx Q"
bx P"
r0 O"
bx N"
bx M"
r0 L"
r0 K"
bx J"
0H"
b0 G"
b0 F"
0D"
b0 C"
b0 B"
0@"
b0 ?"
b0 >"
0<"
b0 ;"
b0 :"
08"
b0 7"
b0 6"
04"
b0 3"
b0 2"
00"
b0 /"
b0 ."
0,"
b0 +"
b0 *"
0("
b0 '"
b0 &"
0$"
b0 #"
b0 ""
0~
b0 }
b0 |
0z
b0 y
b0 x
0v
b0 u
b0 t
0r
b0 q
b0 p
0n
b0 m
b0 l
0j
b0 i
b0 h
0f
b0 e
b0 d
0b
b0 a
b0 `
bx _
b0 ^
0]
b0 \
b0 U
b0 T
b0 S
b0 R
b0 Q
b0 P
b10011011011101001 O
b0 N
b0 M
b0 H
b0 G
0F
b0 E
b0 D
b0 C
b0 B
b0 A
r0 @
r0 ?
r0 >
r0 =
bx <
bx ;
r0 :
r0 9
r0 8
r0 7
r0 6
r0 5
r0 4
r0 3
12
01
b0 0
b0 /
0.
0-
0,
b0 +
b0 *
b0 )
0$
b0 #
b0 "
0!
$end
#5000
1-
#10000
0-
#15000
1-
#20000
0-
#25000
1-
#30000
0-
#35000
1-
#40000
0-
#45000
1-
#50000
0-
11
#55000
1-
#60000
0-
#65000
1-
#70000
0-
1$
1.
#75000
1-
#80000
0-
#85000
1-
#90000
0-
b100000000000000000 /
r1 9
b0 Q"
b0 R"
#95000
b10011011011101001 `
b1 G
b1 M
b1 \
1,
1-
#100000
0-
#105000
1f
b1001101101110100 d
b1001101101110100 e
b0 _
0,
1-
#110000
0-
#115000
0f
b0 d
1j
b10011011011101 h
b111010010010111 i
b1 _
1-
#120000
0-
#125000
1n
b10011011011 l
b11111100100111 m
0j
b0 h
b100110110111010 i
b10 _
1-
#130000
0-
#135000
0n
b0 l
b10011011011101 m
b1111111111001111011 p
b1111111100001 q
b11 _
1-
#140000
0-
#145000
1v
b111100 t
b111111111100 u
b0 p
b1001101101110 q
b100 _
1-
#150000
0-
#155000
0v
b0 t
b100110110111 u
b1111111111111011110 x
b11111111111 y
b101 _
1-
#160000
0-
#165000
b1111111111111111111 |
b1111111111 }
b0 x
b10011011011 y
b110 _
1-
#170000
0-
#175000
b0 |
b1001101101 }
1$"
b11 ""
b111111111 #"
b111 _
1-
#180000
0-
#185000
1("
b11111111 '"
0$"
b0 ""
b100110110 #"
b1000 _
1-
#190000
0-
#195000
0("
b10011011 '"
1,"
b1111111 +"
b1001 _
1-
#200000
0-
#205000
10"
b111111 /"
0,"
b1001101 +"
b1010 _
1-
#210000
0-
#215000
00"
b100110 /"
b1111111111111111111 2"
b11111 3"
b1011 _
1-
#220000
0-
#225000
b1111111111111111111 6"
b1111 7"
b0 2"
b10011 3"
b1100 _
1-
#230000
0-
#235000
b0 6"
b1001 7"
1<"
b111 ;"
b1101 _
1-
#240000
0-
#245000
1@"
b11 ?"
0<"
b100 ;"
b1110 _
1-
#250000
0-
#255000
0@"
b10 ?"
b1 C"
b1111 _
1-
#260000
0-
#265000
b10000 _
1-
#270000
0-
#275000
b11111111111111111111000111011101 T
b11 "
b11 E
b11 R
b11111111111111110 #
b11111111111111110 H
b11111111111111110 P
1!
b10001 _
1-
#280000
0-
#285000
b1 D
b1 N
b1 ^
b0 T
b0 "
b0 E
b0 R
b10011011011101001 #
b10011011011101001 H
b10011011011101001 P
0!
b1 B
b1 R"
r5.238689482212067e-10 T"
r2.328306436538696e-10 S"
r2.288818359375e-05 >
r1.52587890625e-05 =
r2.288818359375e-05 8
r-1.52587890625e-05 7
b11 *
b11111111111111110 )
r2.288818359375e-05 4
r0.9999847412109375 3
1-
#290000
0-
#295000
1-
#300000
0-
#305000
b111000111000111000111000111 +
b111000111000111000111000111 C
b111000111000111000111000111 S
b101100011101000 0
b11111100000111000 /
r0.1736481776669417 :
r0.984807753012206 9
r0.1745329251994444 6
r10 5
b1010 Q"
1-
#310000
0-
#315000
b10 G
b10 M
b10 \
1,
1-
#320000
0-
#325000
1f
b1001101101110100 d
b0 _
0,
1-
#330000
0-
#335000
0f
b0 d
1j
b10011011011101 h
b111010010010111 i
b1 _
1-
#340000
0-
#345000
b10011011011 l
b11111100100111 m
0j
b0 h
b100110110111010 i
b10 _
1-
#350000
0-
#355000
b0 l
b10011011011101 m
1r
b11001100000 p
b1111101000101 q
b11 _
1-
#360000
0-
#365000
b1000110110 t
b111111010101 u
0r
b0 p
b1001101101110 q
b100 _
1-
#370000
0-
#375000
b0 t
b100110110111 u
b101011010 x
b11111100010 y
b101 _
1-
#380000
0-
#385000
1~
b10111100 |
b1111101110 }
b0 x
b10011011011 y
b110 _
1-
#390000
0-
#395000
0~
b0 |
b1001101101 }
1$"
b1011010 ""
b111110111 #"
b111 _
1-
#400000
0-
#405000
b101100 &"
b11111100 '"
0$"
b0 ""
b100110110 #"
b1000 _
1-
#410000
0-
#415000
b0 &"
b10011011 '"
1,"
b10110 *"
b1111110 +"
b1001 _
1-
#420000
0-
#425000
10"
b1011 ."
b111111 /"
0,"
b0 *"
b1001101 +"
b1010 _
1-
#430000
0-
#435000
00"
b0 ."
b100110 /"
b101 2"
b11111 3"
b1011 _
1-
#440000
0-
#445000
18"
b10 6"
b1111 7"
b0 2"
b10011 3"
b1100 _
1-
#450000
0-
#455000
08"
b0 6"
b1001 7"
b1 :"
b111 ;"
b1101 _
1-
#460000
0-
#465000
b11 ?"
b0 :"
b100 ;"
b1110 _
1-
#470000
0-
#475000
b10 ?"
1D"
b1111 _
1-
#480000
0-
#485000
1H"
0D"
b10000 _
1-
#490000
0-
#495000
0H"
b1001000010 T
b101100011101010 "
b101100011101010 E
b101100011101010 R
b11111100000110110 #
b11111100000110110 H
b11111100000110110 P
1!
b10001 _
1-
#500000
0-
#505000
b10 D
b10 N
b10 ^
b111000111000111000111000111 T
b0 "
b0 E
b0 R
b10011011011101001 #
b10011011011101001 H
b10011011011101001 P
0!
b10 B
b10 R"
r6.702947602225379e-10 T"
r6.640452523986672e-10 S"
r2.076570751852191e-05 =
r1.210065337084454e-05 8
r-2.076570751852191e-05 7
b101100011101010 *
b11111100000110110 )
r0.1736602783203125 4
r0.9847869873046875 3
1-
#510000
0-
#515000
1-
#520000
0-
#525000
b1110001110001110001110001110 +
b1110001110001110001110001110 C
b1110001110001110001110001110 S
b1010111100011101 0
b11110000100011111 /
r0.3420201433256903 :
r0.9396926207859005 9
r0.3490658503988889 6
r20 5
b10100 Q"
1-
#530000
0-
#535000
b11 G
b11 M
b11 \
1,
1-
#540000
0-
#545000
1f
b1001101101110100 d
b0 _
0,
1-
#550000
0-
#555000
0f
b0 d
b10011011011101 h
b111010010010111 i
b1 _
1-
#560000
0-
#565000
1n
b10001000000001 l
b11010101110000 m
b0 h
b100110110111010 i
b10 _
1-
#570000
0-
#575000
0n
b0 l
b10011011011101 m
1r
b110110101001 p
b1110011011000 q
b11 _
1-
#580000
0-
#585000
1v
b10111101110 t
b111011011001 u
0r
b0 p
b1001101101110 q
b100 _
1-
#590000
0-
#595000
0v
b0 t
b100110110111 u
b1010111011 x
b11110000100 y
b101 _
1-
#600000
0-
#605000
1~
b101101100 |
b1110111100 }
b0 x
b10011011011 y
b110 _
1-
#610000
0-
#615000
0~
b0 |
b1001101101 }
1$"
b10110010 ""
b111011111 #"
b111 _
1-
#620000
0-
#625000
1("
b1011000 &"
b11110000 '"
0$"
b0 ""
b100110110 #"
b1000 _
1-
#630000
0-
#635000
0("
b0 &"
b10011011 '"
1,"
b101011 *"
b1111000 +"
b1001 _
1-
#640000
0-
#645000
10"
b10101 ."
b111100 /"
0,"
b0 *"
b1001101 +"
b1010 _
1-
#650000
0-
#655000
00"
b0 ."
b100110 /"
14"
b1010 2"
b11110 3"
b1011 _
1-
#660000
0-
#665000
b101 6"
b1111 7"
04"
b0 2"
b10011 3"
b1100 _
1-
#670000
0-
#675000
b0 6"
b1001 7"
1<"
b10 :"
b111 ;"
b1101 _
1-
#680000
0-
#685000
b1 >"
b11 ?"
0<"
b0 :"
b100 ;"
b1110 _
1-
#690000
0-
#695000
b0 >"
b10 ?"
b1111 _
1-
#700000
0-
#705000
b10000 _
1-
#710000
0-
#715000
b11111111111111111110110010110111 T
b1010111100011110 "
b1010111100011110 E
b1010111100011110 R
b11110000100011001 #
b11110000100011001 H
b11110000100011001 P
1!
b10001 _
1-
#720000
0-
#725000
b11 D
b11 N
b11 ^
b1110001110001110001110001110 T
b0 "
b0 E
b0 R
b10011011011101001 #
b10011011011101001 H
b10011011011101001 P
0!
b11 B
b11 R"
r7.018062575178816e-10 T"
r3.041672827083573e-09 S"
r4.876092261929532e-05 =
r5.613510247193254e-06 8
r-4.876092261929532e-05 7
b1010111100011110 *
b11110000100011001 )
r0.3420257568359375 4
r0.9396438598632812 3
1-
#730000
0-
#735000
1-
#740000
0-
#745000
b10101010101010101010101010101 +
b10101010101010101010101010101 C
b10101010101010101010101010101 S
b10000000000000000 0
b11011101101100111 /
r0.5000000000000299 :
r0.8660254037844214 9
r0.5235987755983333 6
r30 5
b11110 Q"
1-
#750000
0-
#755000
b100 G
b100 M
b100 \
1,
1-
#760000
0-
#765000
1f
b1001101101110100 d
b0 _
0,
1-
#770000
0-
#775000
0f
b0 d
b10011011011101 h
b111010010010111 i
b1 _
1-
#780000
0-
#785000
1n
b10001000000001 l
b11010101110000 m
b0 h
b100110110111010 i
b10 _
1-
#790000
0-
#795000
0n
b0 l
b10011011011101 m
b110110101001 p
b1110011011000 q
b11 _
1-
#800000
0-
#805000
b11110111011 t
b110111111110 u
b0 p
b1001101101110 q
b100 _
1-
#810000
0-
#815000
b0 t
b100110110111 u
1z
b10000010101 x
b11011100000 y
b101 _
1-
#820000
0-
#825000
b111111101 |
b1101111000 }
0z
b0 x
b10011011011 y
b110 _
1-
#830000
0-
#835000
b0 |
b1001101101 }
1$"
b100000010 ""
b110111010 #"
b111 _
1-
#840000
0-
#845000
1("
b10000000 &"
b11011101 '"
0$"
b0 ""
b100110110 #"
b1000 _
1-
#850000
0-
#855000
0("
b0 &"
b10011011 '"
b111111 *"
b1101110 +"
b1001 _
1-
#860000
0-
#865000
b11111 ."
b110111 /"
b0 *"
b1001101 +"
b1010 _
1-
#870000
0-
#875000
b0 ."
b100110 /"
14"
b10000 2"
b11011 3"
b1011 _
1-
#880000
0-
#885000
b111 6"
b1101 7"
04"
b0 2"
b10011 3"
b1100 _
1-
#890000
0-
#895000
b0 6"
b1001 7"
1<"
b100 :"
b110 ;"
b1101 _
1-
#900000
0-
#905000
1@"
b10 >"
b11 ?"
0<"
b0 :"
b100 ;"
b1110 _
1-
#910000
0-
#915000
0@"
b0 >"
b10 ?"
1D"
b1 B"
b1111 _
1-
#920000
0-
#925000
0D"
b0 B"
b10000 _
1-
#930000
0-
#935000
b11111111111111111110110101110110 T
b10000000000000000 "
b10000000000000000 E
b10000000000000000 R
b11011101101101001 #
b11011101101101001 H
b11011101101101001 P
1!
b10001 _
1-
#940000
0-
#945000
b100 D
b100 N
b100 ^
b10101010101010101010101010101 T
b0 "
b0 E
b0 R
b10011011011101001 #
b10011011011101001 H
b10011011011101001 P
0!
b100 B
b100 R"
r3.142828976807177e-09 S"
r-2.986499936241671e-14 8
r1.005764135986187e-05 7
b10000000000000000 *
b11011101101101001 )
r0.5 4
r0.8660354614257812 3
1-
#950000
0-
#955000
1-
#960000
0-
#965000
b11100011100011100011100011100 +
b11100011100011100011100011100 C
b11100011100011100011100011100 S
b10100100100011011 0
b11000100000110110 /
r0.6427876096865746 :
r0.7660444431189485 9
r0.6981317007977778 6
r40 5
b101000 Q"
1-
#970000
0-
#975000
b101 G
b101 M
b101 \
1,
1-
#980000
0-
#985000
1f
b1001101101110100 d
b0 _
0,
1-
#990000
0-
#995000
0f
b0 d
b10011011011101 h
b111010010010111 i
b1 _
1-
#1000000
0-
#1005000
b10001000000001 l
b11010101110000 m
b0 h
b100110110111010 i
b10 _
1-
#1010000
0-
#1015000
b0 l
b10011011011101 m
b1010001010111 p
b1100010010111 q
b11 _
1-
#1020000
0-
#1025000
1v
b101011110000 t
b101110101001 u
b0 p
b1001101101110 q
b100 _
1-
#1030000
0-
#1035000
0v
b0 t
b100110110111 u
1z
b10101001001 x
b11000000000 y
b101 _
1-
#1040000
0-
#1045000
1~
b1010011000 |
b1100001010 }
0z
b0 x
b10011011011 y
b110 _
1-
#1050000
0-
#1055000
0~
b0 |
b1001101101 }
1$"
b101001001 ""
b110000111 #"
b111 _
1-
#1060000
0-
#1065000
b10100011 &"
b11000100 '"
0$"
b0 ""
b100110110 #"
b1000 _
1-
#1070000
0-
#1075000
b0 &"
b10011011 '"
b1010010 *"
b1100010 +"
b1001 _
1-
#1080000
0-
#1085000
b101001 ."
b110001 /"
b0 *"
b1001101 +"
b1010 _
1-
#1090000
0-
#1095000
b0 ."
b100110 /"
14"
b10100 2"
b11000 3"
b1011 _
1-
#1100000
0-
#1105000
b1010 6"
b1100 7"
04"
b0 2"
b10011 3"
b1100 _
1-
#1110000
0-
#1115000
b0 6"
b1001 7"
1<"
b101 :"
b110 ;"
b1101 _
1-
#1120000
0-
#1125000
1@"
b10 >"
b11 ?"
0<"
b0 :"
b100 ;"
b1110 _
1-
#1130000
0-
#1135000
0@"
b0 >"
b10 ?"
b1 B"
b1111 _
1-
#1140000
0-
#1145000
1H"
b0 B"
b10000 _
1-
#1150000
0-
#1155000
0H"
b11111111111111111111110011100111 T
b10100100100011100 "
b10100100100011100 E
b10100100100011100 R
b11000100000110100 #
b11000100000110100 H
b11000100000110100 P
1!
b10001 _
1-
#1160000
0-
#1165000
b101 D
b101 N
b101 ^
b11100011100011100011100011100 T
b0 "
b0 E
b0 R
b10011011011101001 #
b10011011011101001 H
b10011011011101001 P
0!
b101 B
b101 R"
r7.189322834941644e-10 T"
r3.658782180950295e-09 S"
r4.138360300443011e-06 8
r-2.271460332348152e-05 7
b10100100100011100 *
b11000100000110100 )
r0.642791748046875 4
r0.766021728515625 3
1-
#1170000
0-
#1175000
1-
#1180000
0-
#1185000
b100011100011100011100011100011 +
b100011100011100011100011100011 C
b100011100011100011100011100011 S
b11000100000110110 0
b10100100100011011 /
r0.766044443119015 :
r0.6427876096864953 9
r0.8726646259972223 6
r50 5
b110010 Q"
1-
#1190000
0-
#1195000
b110 G
b110 M
b110 \
1,
1-
#1200000
0-
#1205000
b1001101101110100 d
b0 _
0,
1-
#1210000
0-
#1215000
b0 d
1j
b111010010010111 h
b10011011011101 i
b1 _
1-
#1220000
0-
#1225000
1n
b11010101110000 l
b10001000000001 m
0j
b0 h
b100110110111010 i
b10 _
1-
#1230000
0-
#1235000
0n
b0 l
b10011011011101 m
1r
b1100010010111 p
b1010001010111 q
b11 _
1-
#1240000
0-
#1245000
b101110101001 t
b101011110000 u
0r
b0 p
b1001101101110 q
b100 _
1-
#1250000
0-
#1255000
b0 t
b100110110111 u
b11000000000 x
b10101001001 y
b101 _
1-
#1260000
0-
#1265000
b1100001010 |
b1010011000 }
b0 x
b10011011011 y
b110 _
1-
#1270000
0-
#1275000
b0 |
b1001101101 }
b110000111 ""
b101001001 #"
b111 _
1-
#1280000
0-
#1285000
1("
b11000100 &"
b10100011 '"
b0 ""
b100110110 #"
b1000 _
1-
#1290000
0-
#1295000
0("
b0 &"
b10011011 '"
1,"
b1100010 *"
b1010010 +"
b1001 _
1-
#1300000
0-
#1305000
10"
b110001 ."
b101001 /"
0,"
b0 *"
b1001101 +"
b1010 _
1-
#1310000
0-
#1315000
00"
b0 ."
b100110 /"
b11000 2"
b10100 3"
b1011 _
1-
#1320000
0-
#1325000
18"
b1100 6"
b1010 7"
b0 2"
b10011 3"
b1100 _
1-
#1330000
0-
#1335000
08"
b0 6"
b1001 7"
b110 :"
b101 ;"
b1101 _
1-
#1340000
0-
#1345000
b11 >"
b0 :"
b100 ;"
b1110 _
1-
#1350000
0-
#1355000
b0 >"
1D"
b1 B"
b1111 _
1-
#1360000
0-
#1365000
0D"
b0 B"
b10000 _
1-
#1370000
0-
#1375000
b1100011000 T
b11000100000110100 "
b11000100000110100 E
b11000100000110100 R
b10100100100011100 #
b10100100100011100 H
b10100100100011100 P
1!
b10001 _
1-
#1380000
0-
#1385000
b110 D
b110 N
b110 ^
b100011100011100011100011100011 T
b0 "
b0 E
b0 R
b10011011011101001 #
b10011011011101001 H
b10011011011101001 P
0!
b110 B
b110 R"
r1.234885490658431e-09 T"
r3.675908207582673e-09 S"
r-2.271460338998388e-05 8
r4.138360379712935e-06 7
b11000100000110100 *
b10100100100011100 )
r0.766021728515625 4
r0.642791748046875 3
1-
#1390000
0-
#1395000
1-
#1400000
0-
#1405000
b101010101010101010101010101010 +
b101010101010101010101010101010 C
b101010101010101010101010101010 S
b11011101101100111 0
b1111111111111111 /
r0.8660254037844731 :
r0.4999999999999403 9
r1.047197551196667 6
r60 5
b111100 Q"
1-
#1410000
0-
#1415000
b111 G
b111 M
b111 \
1,
1-
#1420000
0-
#1425000
b1001101101110100 d
b0 _
0,
1-
#1430000
0-
#1435000
b0 d
1j
b111010010010111 h
b10011011011101 i
b1 _
1-
#1440000
0-
#1445000
b11010101110000 l
b10001000000001 m
0j
b0 h
b100110110111010 i
b10 _
1-
#1450000
0-
#1455000
b0 l
b10011011011101 m
1r
b1110011011000 p
b110110101001 q
b11 _
1-
#1460000
0-
#1465000
1v
b110111111110 t
b11110111011 u
0r
b0 p
b1001101101110 q
b100 _
1-
#1470000
0-
#1475000
0v
b0 t
b100110110111 u
b11011100000 x
b10000010101 y
b101 _
1-
#1480000
0-
#1485000
1~
b1101111000 |
b111111101 }
b0 x
b10011011011 y
b110 _
1-
#1490000
0-
#1495000
0~
b0 |
b1001101101 }
b110111010 ""
b100000010 #"
b111 _
1-
#1500000
0-
#1505000
b11011101 &"
b10000000 '"
b0 ""
b100110110 #"
b1000 _
1-
#1510000
0-
#1515000
b0 &"
b10011011 '"
1,"
b1101110 *"
b111111 +"
b1001 _
1-
#1520000
0-
#1525000
10"
b110111 ."
b11111 /"
0,"
b0 *"
b1001101 +"
b1010 _
1-
#1530000
0-
#1535000
00"
b0 ."
b100110 /"
b11011 2"
b10000 3"
b1011 _
1-
#1540000
0-
#1545000
18"
b1101 6"
b111 7"
b0 2"
b10011 3"
b1100 _
1-
#1550000
0-
#1555000
08"
b0 6"
b1001 7"
b110 :"
b1101 _
1-
#1560000
0-
#1565000
b11 >"
b0 :"
b1110 _
1-
#1570000
0-
#1575000
b0 >"
b1 B"
b1111 _
1-
#1580000
0-
#1585000
1H"
b0 B"
b10000 _
1-
#1590000
0-
#1595000
0H"
b1001010001001 T
b11011101101101001 "
b11011101101101001 E
b11011101101101001 R
b10000000000000000 #
b10000000000000000 H
b10000000000000000 P
1!
b10001 _
1-
#1600000
0-
#1605000
b111 D
b111 N
b111 ^
b101010101010101010101010101010 T
b0 "
b0 E
b0 R
b10011011011101001 #
b10011011011101001 H
b10011011011101001 P
0!
b111 B
b111 R"
r1.336041639341343e-09 T"
r1.005764130812548e-05 8
r5.972999872483342e-14 7
b11011101101101001 *
b10000000000000000 )
r0.8660354614257812 4
r0.5 3
1-
#1610000
0-
#1615000
1-
#1620000
0-
#1625000
b110001110001110001110001110001 +
b110001110001110001110001110001 C
b110001110001110001110001110001 S
b11110000100011111 0
b1010111100011101 /
r0.939692620785936 :
r0.3420201433255931 9
r1.221730476396111 6
r70 5
b1000110 Q"
1-
#1630000
0-
#1635000
b1000 G
b1000 M
b1000 \
1,
1-
#1640000
0-
#1645000
b1001101101110100 d
b0 _
0,
1-
#1650000
0-
#1655000
b0 d
1j
b111010010010111 h
b10011011011101 i
b1 _
1-
#1660000
0-
#1665000
b11010101110000 l
b10001000000001 m
0j
b0 h
b100110110111010 i
b10 _
1-
#1670000
0-
#1675000
b0 l
b10011011011101 m
b1110011011000 p
b110110101001 q
b11 _
1-
#1680000
0-
#1685000
b111011011001 t
b10111101110 u
b0 p
b1001101101110 q
b100 _
1-
#1690000
0-
#1695000
b0 t
b100110110111 u
1z
b11110000100 x
b1010111011 y
b101 _
1-
#1700000
0-
#1705000
b1110111100 |
b101101100 }
0z
b0 x
b10011011011 y
b110 _
1-
#1710000
0-
#1715000
b0 |
b1001101101 }
b111011111 ""
b10110010 #"
b111 _
1-
#1720000
0-
#1725000
b11110000 &"
b1011000 '"
b0 ""
b100110110 #"
b1000 _
1-
#1730000
0-
#1735000
b0 &"
b10011011 '"
b1111000 *"
b101011 +"
b1001 _
1-
#1740000
0-
#1745000
b111100 ."
b10101 /"
b0 *"
b1001101 +"
b1010 _
1-
#1750000
0-
#1755000
b0 ."
b100110 /"
b11110 2"
b1010 3"
b1011 _
1-
#1760000
0-
#1765000
18"
b1111 6"
b101 7"
b0 2"
b10011 3"
b1100 _
1-
#1770000
0-
#1775000
08"
b0 6"
b1001 7"
b111 :"
b10 ;"
b1101 _
1-
#1780000
0-
#1785000
1@"
b11 >"
b1 ?"
b0 :"
b100 ;"
b1110 _
1-
#1790000
0-
#1795000
0@"
b0 >"
b10 ?"
1D"
b1 B"
b0 C"
b1111 _
1-
#1800000
0-
#1805000
1H"
0D"
b0 B"
b1 C"
b10000 _
1-
#1810000
0-
#1815000
0H"
b1001101001000 T
b11110000100011001 "
b11110000100011001 E
b11110000100011001 R
b1010111100011110 #
b1010111100011110 H
b1010111100011110 P
1!
b10001 _
1-
#1820000
0-
